<?xml version="1.0" encoding="utf-8"?>
<!-- Generator: Adobe Illustrator 16.0.0, SVG Export Plug-In . SVG Version: 6.00 Build 0)  -->
<!DOCTYPE svg PUBLIC "-//W3C//DTD SVG 1.1//EN" "http://www.w3.org/Graphics/SVG/1.1/DTD/svg11.dtd">
<svg version="1.1" id="Layer_1" xmlns="http://www.w3.org/2000/svg" xmlns:xlink="http://www.w3.org/1999/xlink" x="0px" y="0px"
	 width="52.264px" height="84.988px" viewBox="35.605 20.849 52.264 84.988" enable-background="new 35.605 20.849 52.264 84.988"
	 xml:space="preserve">
<g>
	<path fill="#62391D" d="M44.23,31.641c-1.228,1.935-4.127,8.785-4.857,10.672c-0.729,1.886-1.037,14.73,6.419,25.059
		s23.763,9.18,24.06,9.759c0.754,1.46,1.512-0.044,3.028,1.571c0,0,6.79-6.226,8.957-16.543S81.15,44.503,81.15,44.503L44.23,31.641
		z"/>
	<path fill="#EF9196" d="M69.982,76.592c-0.471,0.172-1.518,1.958-1.174,3.01c0.344,1.049,4.604,2.17,5.159,1.655
		C77.557,77.947,71.725,75.959,69.982,76.592z"/>
	<path fill="#F4B67E" d="M71.007,93.145c0.462-0.348,10.479-7.914,10.479-7.914c4.592,1.515,5.916,14.535,6.383,20.606H76.9
		L71.007,93.145z"/>
	<path fill="#F4B67E" d="M61.605,76.643h-4.84v3.057c0.005,3.623-9.627,3.953-12.894,4.996c1.184,6.371-0.865,9.178,16.828,19.855
		h1.249h1.247c8.578-3.117,15.092-6.941,16.729-19.779c-3.354-1.071-13.482-1.388-13.479-5.072v-3.057H61.605z"/>
	<path fill="#F4B67E" d="M49.125,95.286c-0.462-0.347-7.137-10.058-7.137-10.058c-4.591,1.516-5.915,14.535-6.383,20.607h10.969
		L49.125,95.286z"/>
	<path fill="#7D5F65" d="M43.879,84.691l-0.007,0.002l-0.055,0.014l-0.055,0.014l-0.054,0.012l-0.054,0.014l-0.053,0.013
		l-0.053,0.013l-0.104,0.025l-0.051,0.014l-0.051,0.013l-0.05,0.013h-0.003l-0.046,0.012l-0.05,0.014l-0.048,0.013l-0.048,0.013
		L43.049,84.9l-0.047,0.012l-0.125,0.033l-0.012,0.004l-0.045,0.013l-0.043,0.013l-0.044,0.012L42.69,85l-0.042,0.012l-0.041,0.014
		l-0.034,0.01l-0.007,0.002l-0.04,0.013l-0.04,0.013l-0.038,0.012h-0.001l-0.038,0.013l-0.075,0.024l-0.027,0.009l-0.009,0.003
		l-0.105,0.036l-0.018,0.006l-0.016,0.006l-0.065,0.024L42.066,85.2l-0.028,0.01l-0.08,0.032l-0.024,0.011
		c-0.03,0.013-0.06,0.024-0.087,0.038l-0.004,0.002l-0.003,0.001c-0.03,0.015-0.058,0.026-0.084,0.041l-0.006,0.003
		c-0.024,0.012-0.047,0.025-0.068,0.037l-0.009,0.005l-0.004,0.003c-0.021,0.014-0.041,0.025-0.06,0.038l-0.004,0.003l-0.002,0.001
		c-0.02,0.015-0.038,0.028-0.054,0.042c0.463,1.012,1.079,4.471,1.725,8.742c-0.652,4.359-3.205,7.489-1.369,11.628h3h16.701h0.131
		h0.133h16.699h3.002c1.836-4.139-0.717-7.269-1.37-11.628c0.646-4.271,1.262-7.73,1.725-8.742
		c-0.016-0.014-0.032-0.027-0.053-0.042l-0.002-0.001l-0.005-0.003c-0.018-0.013-0.038-0.024-0.059-0.038l-0.006-0.003l-0.009-0.005
		c-0.021-0.012-0.044-0.025-0.067-0.037l-0.006-0.003c-0.025-0.015-0.055-0.026-0.084-0.041l-0.004-0.001l-0.003-0.002l-0.087-0.038
		l-0.023-0.011l-0.08-0.032l-0.028-0.01l-0.031-0.013l-0.065-0.023l-0.016-0.006l-0.02-0.006l-0.104-0.036l-0.01-0.003l-0.027-0.01
		l-0.074-0.023l-0.039-0.014l0,0l-0.039-0.012l-0.039-0.012l-0.039-0.014l-0.008-0.002l-0.033-0.01l-0.042-0.013l-0.042-0.012
		l-0.043-0.013l-0.043-0.013l-0.045-0.013l-0.043-0.014l-0.012-0.002l-0.127-0.035l-0.047-0.012l-0.047-0.013l-0.048-0.013
		l-0.05-0.014l-0.049-0.013l-0.047-0.012H80.18l-0.051-0.013l-0.05-0.014l-0.052-0.013l-0.104-0.024l-0.053-0.014l-0.054-0.014
		l-0.053-0.012l-0.055-0.013L79.654,84.7L79.6,84.688l-0.008-0.002c-2.349,7.782-9.455,13.438-17.857,13.438
		C53.331,98.124,46.228,92.475,43.879,84.691z"/>
	<g>
		<path fill="#F5C084" d="M47.378,52.779c0.803,3.606-0.792,6.61-3.523,7.258c-2.73,0.646-5.562-1.309-6.363-4.916
			c-0.803-3.606,0.76-7.056,3.491-7.702C43.713,46.771,46.576,49.171,47.378,52.779z"/>
		<path fill="#F5C084" d="M76.9,52.779c-0.803,3.606,0.791,6.61,3.522,7.258c2.729,0.646,5.562-1.309,6.363-4.916
			c0.803-3.606-0.761-7.056-3.491-7.702C80.564,46.771,77.702,49.171,76.9,52.779z"/>
	</g>
	<path fill="#F8CA97" d="M62.139,23.431l-0.062,0.003c-1.446-0.058-2.847-0.113-2.847-0.113l0.006,0.226
		c-0.186,0.008-0.299,0.013-0.299,0.013c-5.778,0.229-11.219,3.342-14.707,8.082c-3.492,4.745-3.956,10.721-3.682,16.443
		c0.708,14.704,8.944,31.214,21.591,31.336c12.646-0.122,20.883-16.632,21.59-31.336c0.274-5.723-0.188-11.698-3.681-16.443
		c-3.489-4.74-8.93-7.853-14.708-8.082c0,0-0.113-0.005-0.299-0.013l0.006-0.226c0,0-1.4,0.056-2.847,0.113L62.139,23.431z"/>
	<path fill="#62391D" d="M71.126,29.128c-0.173,0.808-0.019,5.137,4.963,11.771c4.981,6.634,5.366,7.214,5.366,7.214
		s0.23,11.194,0.865,9.867s1.541-10.966,1.541-10.966s1.172-5.019-0.098-10.212c-1.271-5.193-2.873-7.151-5.072-8.026
		C76.49,27.9,71.126,29.128,71.126,29.128z"/>
	<path fill="#62391D" d="M43.37,43.15c-0.866,0.98-3.679,1.086-3.679,1.086c0.123,0.907,1.334,14.57,2.47,13.603L43.37,43.15z"/>
	<path fill="#62391D" d="M81.455,48.113c0.227-3.792,2.172-12.449,1.219-14.812c-2.749-6.813-7.783-9.571-16.236-10.417
		c-2.598-0.259-4.762-0.028-4.762-0.028C66.525,30.86,70.62,41.496,81.455,48.113z"/>
	<path fill="#62391D" d="M73.305,31.188c-1.714,10.691-24.271,7.245-31.693,20.104c-8.27-12.504,4.394-38.117,26.435-28.218
		L73.305,31.188z"/>
	<g>
		<circle fill="#3E3C3B" cx="53.204" cy="55.629" r="1.673"/>
		<circle fill="#3E3C3B" cx="72.074" cy="55.629" r="1.673"/>
	</g>
	<path fill="#E5B27E" d="M59.437,64.165c-0.021-0.006-0.023-0.022-0.006-0.051c0-0.085,0.048-0.166,0.136-0.244
		c0.688-1.322,2.041-5.183,2.66-9.428c0.68,0.042-0.674,7.226-1.256,8.94c0.59-0.103,1.307-0.163,2.08-0.163
		c2,0,3.621,0.4,3.621,0.896s-1.621,0.895-3.621,0.895C61.12,65.009,59.543,64.636,59.437,64.165z"/>
	<g>
		<path fill="#402515" d="M66.582,51.598c-0.991,0.411,0.656-2.274,5.529-2.381c5.681-0.124,7.408,2.608,5.171,1.823
			C72.454,49.348,68.154,50.946,66.582,51.598z"/>
		<path fill="#402515" d="M58.696,51.598c0.991,0.411-0.656-2.274-5.529-2.381c-5.681-0.124-7.409,2.608-5.171,1.823
			C52.825,49.348,57.124,50.946,58.696,51.598z"/>
	</g>
	<path fill="#D6825C" d="M68.425,68.948c-1.102,3.536-11.09,3.536-12.191,0C59.544,71.471,65.113,71.471,68.425,68.948z"/>
	<path fill="#62391D" d="M64.932,86.693c-2.596,6.552-0.644,8.613-0.644,8.613l0.3-3.686c0,0,0.9,4.543,0.986,7.457
		s-1.028,6.758-1.028,6.758s4.628-2.516,6.899-6.457c2.271-3.943,1.5-11.4,1.5-11.4s0.941,2.486,0.941,2.229s0.52-3.647,0.301-6.3
		c-0.105-1.281,0.144-2.852-0.683-4.04C69.688,74.369,65.85,84.376,64.932,86.693z"/>
</g>
</svg>
