<?xml version="1.0" standalone="no"?>
<!DOCTYPE svg PUBLIC "-//W3C//DTD SVG 20010904//EN"
 "http://www.w3.org/TR/2001/REC-SVG-20010904/DTD/svg10.dtd">
<svg version="1.0" xmlns="http://www.w3.org/2000/svg"
 width="1164.000000pt" height="1164.000000pt" viewBox="0 0 1164.000000 1164.000000"
 preserveAspectRatio="xMidYMid meet">
<metadata>
Created by potrace 1.11, written by Peter Selinger 2001-2013
</metadata>
<g transform="translate(0.000000,1164.000000) scale(0.100000,-0.100000)"
fill="#000000" stroke="none">
<path d="M10220 8564 c-90 -24 -178 -74 -241 -137 -32 -33 -61 -68 -64 -78 -4
-11 -10 -19 -14 -19 -4 0 -16 -18 -26 -40 l-18 -39 -46 39 c-68 57 -155 91
-268 105 -102 12 -155 8 -239 -21 -52 -18 -70 -31 -139 -99 l-51 -50 -46 17
c-133 49 -279 57 -361 18 -143 -67 -214 -227 -155 -348 l21 -45 46 52 c64 73
127 95 214 75 33 -8 76 -22 96 -31 43 -20 222 -140 271 -183 53 -45 52 -44
100 -68 94 -45 244 -42 355 7 43 19 46 19 51 3 15 -53 74 -151 114 -192 106
-108 250 -156 451 -153 137 3 285 51 364 119 17 14 40 33 51 43 12 11 24 25
27 32 4 11 9 9 18 -6 36 -57 109 -107 179 -123 105 -23 280 20 409 100 25 15
74 82 78 107 6 32 5 57 -2 88 -6 27 -5 32 11 31 70 -5 179 45 210 95 25 42 26
121 3 169 -33 65 -114 109 -209 113 l-45 2 -2 43 c-10 161 -103 238 -289 238
-110 0 -201 -37 -256 -103 -9 -11 -18 -18 -20 -15 -3 3 -17 28 -33 55 -75 132
-210 204 -393 210 -63 3 -116 -1 -152 -11z"/>
<path d="M8259 7708 c0 -13 -1 -68 -2 -123 l-2 -100 341 -1 342 -2 -3 57 c-2
31 -5 86 -5 124 l-2 67 -334 0 -334 0 -1 -22z"/>
<path d="M8249 7310 c-3 -9 -14 -250 -24 -515 -12 -340 -17 -462 -20 -555 -3
-58 -7 -168 -10 -245 -3 -77 -8 -203 -10 -280 -3 -77 -7 -190 -10 -251 -2 -61
-7 -182 -10 -270 -4 -87 -8 -206 -10 -264 -2 -58 -6 -171 -9 -251 l-5 -147
453 0 453 0 -3 111 c-2 62 -6 168 -8 237 -14 327 -17 405 -22 545 -3 83 -7
195 -9 250 -2 55 -6 168 -9 250 -6 146 -9 214 -21 535 -4 85 -8 207 -11 270
-10 301 -20 560 -23 580 -1 7 -691 7 -692 0z"/>
<path d="M17 6952 c-16 -3 -17 -88 -17 -1212 l0 -1208 450 0 450 0 0 227 0
226 144 145 c80 80 149 146 154 148 6 2 13 -7 17 -20 4 -13 14 -39 22 -58 23
-53 28 -66 73 -180 22 -58 45 -114 49 -125 5 -11 19 -45 31 -75 11 -30 25 -64
30 -75 4 -11 23 -58 41 -105 18 -47 37 -90 41 -96 6 -9 133 -12 458 -12 389
-1 479 3 442 20 -4 2 -15 19 -24 38 -21 43 -84 157 -104 187 -8 12 -14 29 -14
37 0 8 -4 16 -8 18 -8 3 -126 210 -210 368 -19 36 -41 73 -50 83 -8 9 -12 17
-7 17 4 0 3 6 -3 13 -5 6 -25 39 -42 72 -18 33 -39 67 -46 75 -7 8 -13 18 -13
23 0 4 -16 35 -36 68 -19 33 -35 64 -35 68 0 5 -7 14 -15 21 -9 7 -13 15 -11
18 3 3 -3 17 -13 31 -10 14 -39 65 -64 113 -44 80 -50 110 -27 128 3 3 36 48
73 100 37 52 75 106 85 119 32 44 412 576 424 595 7 10 22 31 34 45 11 14 41
56 68 94 l47 67 -38 1 c-276 3 -867 -2 -873 -8 -11 -12 -554 -827 -559 -838
-2 -5 -12 -21 -22 -34 -19 -23 -19 -13 -19 428 0 423 -1 451 -17 451 -95 3
-853 4 -866 2z"/>
<path d="M3508 6955 c-1 -2 -43 -6 -93 -9 -361 -22 -703 -217 -918 -524 -105
-148 -186 -364 -204 -542 -11 -108 -5 -318 10 -327 4 -2 5 -8 3 -12 -14 -22
50 -222 107 -336 56 -113 166 -263 241 -328 12 -10 37 -33 56 -50 150 -136
402 -250 625 -283 98 -14 357 -7 417 12 9 3 25 6 35 8 10 2 38 10 63 17 25 7
52 14 60 15 8 2 23 7 35 13 11 5 47 22 80 36 281 124 522 378 631 665 99 259
106 554 18 817 -31 95 -133 292 -156 301 -4 2 -8 8 -8 13 0 27 -191 218 -282
282 -140 99 -346 187 -471 203 -16 2 -32 6 -36 8 -4 3 -48 8 -97 11 -49 4 -94
8 -101 10 -6 2 -13 2 -15 0z m154 -753 c109 -55 178 -134 225 -262 74 -199 29
-433 -111 -575 -100 -100 -217 -138 -341 -110 -151 35 -272 167 -320 350 -20
77 -15 240 11 315 43 132 121 226 229 279 75 37 84 39 172 36 58 -2 84 -8 135
-33z"/>
<path d="M5145 6950 c-28 -5 -30 -8 -31 -50 -2 -90 -14 -418 -19 -525 -3 -60
-8 -177 -10 -260 -3 -82 -7 -202 -10 -265 -2 -63 -6 -182 -9 -265 -3 -82 -8
-215 -11 -295 -9 -215 -14 -343 -21 -562 l-6 -196 381 0 381 0 1 547 c0 392 3
539 11 521 31 -74 128 -327 128 -334 0 -3 9 -25 19 -49 11 -23 26 -62 34 -87
9 -25 25 -66 36 -92 11 -27 18 -48 14 -48 -3 0 0 -6 6 -13 6 -8 27 -58 47
-113 64 -173 70 -188 82 -214 6 -14 18 -46 27 -71 l17 -46 212 -1 c117 0 217
3 222 6 11 8 30 53 70 162 14 41 33 89 40 105 7 17 27 68 44 115 17 47 35 94
40 105 5 11 34 88 65 170 31 83 63 164 70 180 7 17 18 47 25 67 6 21 15 40 20
43 5 3 7 12 3 20 -3 8 -1 15 4 15 5 0 10 6 10 13 1 22 32 92 33 77 1 -8 3
-253 4 -545 l1 -530 375 -2 c230 -1 377 2 381 8 3 6 4 42 3 82 -8 213 -16 412
-29 772 -2 72 -7 193 -10 270 -3 77 -7 192 -9 255 -3 63 -8 194 -11 290 -4 96
-9 225 -11 285 -11 339 -15 450 -19 453 -6 6 -877 4 -883 -2 -6 -7 -17 -36
-58 -153 -13 -40 -30 -85 -36 -100 -6 -16 -12 -32 -14 -38 -6 -24 -91 -262
-96 -270 -3 -6 -13 -32 -21 -60 -9 -27 -39 -115 -67 -195 -29 -80 -70 -198
-93 -262 -23 -65 -44 -115 -48 -110 -5 5 -38 95 -44 122 -1 3 -6 16 -12 30 -6
14 -20 52 -31 85 -11 33 -39 112 -62 175 -22 63 -52 149 -66 190 -14 41 -29
84 -34 95 -5 11 -13 34 -18 50 -18 54 -92 259 -101 280 -5 11 -19 53 -33 93
l-24 73 -414 2 c-228 1 -428 0 -445 -3z"/>
<path d="M9316 6944 c-8 -7 -11 -363 -9 -1190 0 -648 2 -1189 2 -1201 l1 -22
407 2 408 2 0 508 c0 336 3 507 10 507 5 -1 34 -31 62 -68 49 -63 72 -90 126
-152 13 -14 54 -63 92 -110 37 -47 73 -90 79 -96 6 -6 26 -29 44 -52 18 -22
45 -53 58 -69 14 -15 37 -44 52 -63 15 -19 32 -39 38 -45 5 -5 35 -39 64 -75
30 -36 61 -73 70 -82 8 -9 51 -59 94 -111 l79 -96 321 2 321 2 2 1208 c2 1131
1 1207 -15 1207 -25 1 -676 1 -744 0 l-57 0 0 -382 c0 -574 0 -566 -13 -544
-6 11 -21 29 -33 40 -11 12 -49 55 -82 96 -34 41 -72 87 -85 102 -13 15 -37
44 -54 65 -18 21 -60 72 -95 114 -35 41 -82 97 -104 124 -22 26 -45 53 -50 59
-6 6 -30 36 -55 66 -44 53 -74 89 -115 136 -18 21 -41 49 -85 105 -15 19 -32
20 -370 22 -241 1 -357 -1 -364 -9z"/>
<path d="M5390 4078 c-52 -20 -99 -86 -95 -133 9 -109 112 -170 206 -124 82
41 102 149 41 217 -40 43 -101 60 -152 40z"/>
<path d="M5771 4071 c-5 -9 -9 -19 -10 -23 -1 -5 -1 -9 -2 -10 0 -2 -2 -10 -4
-18 -1 -9 -22 -85 -45 -170 -23 -85 -51 -189 -62 -230 -11 -41 -33 -124 -49
-185 -16 -60 -31 -117 -34 -125 -2 -8 -11 -42 -20 -75 -9 -33 -22 -82 -29
-110 -7 -27 -15 -57 -17 -65 -4 -13 46 -15 406 -15 266 0 410 4 411 10 0 6 6
30 13 55 7 25 15 52 16 60 2 8 13 48 23 88 l20 72 -67 1 c-36 0 -140 0 -230 0
l-163 0 6 22 c4 12 9 34 12 50 4 15 12 27 18 28 6 0 83 1 171 0 88 0 170 2
181 4 21 5 25 15 50 115 2 8 10 39 18 69 8 30 13 58 11 62 -3 4 -87 7 -186 8
-100 0 -182 1 -183 3 -2 2 4 24 11 50 l14 48 231 2 231 3 38 140 c21 77 38
143 39 147 0 3 -182 6 -405 6 -365 0 -406 -2 -414 -17z"/>
<path d="M6670 4061 c0 -15 3 -31 7 -35 4 -3 8 -12 9 -19 7 -34 16 -67 57
-219 68 -249 70 -218 -15 -323 -40 -49 -77 -96 -83 -103 -5 -7 -15 -18 -20
-25 -6 -7 -56 -68 -110 -137 -55 -69 -106 -132 -114 -140 -13 -13 6 -15 170
-18 l184 -3 55 59 c30 32 91 98 136 146 l81 87 42 -113 c24 -62 49 -128 57
-145 l15 -33 185 0 184 0 -6 28 c-3 15 -10 41 -15 58 -5 17 -11 40 -14 50 -2
10 -27 102 -55 203 -27 102 -47 187 -43 190 5 3 24 26 43 51 19 25 40 52 47
60 7 8 67 83 133 165 66 83 129 160 140 171 11 12 20 26 20 32 0 5 7 12 15 16
45 17 -4 23 -180 23 l-196 0 -37 -45 c-20 -24 -46 -54 -57 -67 -58 -64 -93
-104 -121 -136 l-31 -36 -38 111 c-20 61 -43 125 -50 142 l-13 31 -191 1 -191
1 0 -28z"/>
<path d="M7865 4011 c-10 -42 -22 -83 -26 -91 -4 -8 -10 -28 -13 -45 -7 -38
-75 -295 -83 -315 -3 -8 -7 -19 -8 -25 -1 -5 -3 -12 -4 -15 -2 -3 -4 -12 -6
-20 -1 -9 -13 -51 -25 -95 -12 -44 -23 -87 -25 -96 -2 -9 -17 -67 -34 -131
-17 -63 -31 -120 -31 -127 0 -8 45 -11 175 -9 96 2 174 5 173 8 -1 3 4 14 10
26 6 11 14 34 17 50 3 16 7 34 9 39 2 6 6 22 10 36 7 24 12 27 64 28 47 1 100
8 177 26 43 9 187 81 230 114 56 43 134 123 141 144 3 9 9 17 13 17 8 0 41 72
59 128 6 18 10 65 8 105 -3 85 -33 152 -93 208 -42 40 -128 88 -168 94 -5 1
-17 4 -25 8 -22 8 -25 8 -286 12 l-241 3 -18 -77z m441 -245 c58 -39 60 -110
5 -169 -43 -47 -87 -65 -164 -69 -49 -2 -59 14 -41 66 25 75 44 145 44 158 0
8 5 19 11 25 17 17 114 9 145 -11z"/>
<path d="M8868 4046 c-6 -22 -12 -45 -14 -51 -1 -5 -13 -53 -28 -105 -28 -103
-74 -276 -80 -300 -2 -8 -14 -51 -26 -95 -12 -44 -23 -87 -25 -95 -2 -8 -24
-91 -49 -184 -25 -93 -46 -171 -46 -173 0 -1 80 -3 178 -3 l179 0 12 48 c6 26
13 52 15 57 1 6 6 26 10 46 l8 36 62 2 62 2 13 -38 c7 -21 18 -51 26 -68 7
-16 18 -42 24 -57 l11 -28 184 0 c171 0 185 1 181 18 -4 20 -39 148 -65 245
l-19 68 67 68 c209 212 192 476 -39 594 -89 45 -152 54 -401 54 l-228 1 -12
-42z m417 -273 c52 -29 73 -79 54 -130 -15 -40 -75 -89 -127 -104 -47 -13
-108 -16 -118 -6 -5 5 51 232 61 248 7 10 108 4 130 -8z"/>
<path d="M9915 4080 c-4 -7 -31 -105 -91 -330 -18 -69 -34 -125 -34 -125 -1 0
-3 -7 -5 -15 -1 -8 -15 -60 -29 -115 -15 -55 -40 -149 -56 -210 -16 -60 -38
-140 -48 -178 l-19 -67 410 2 411 3 13 50 c7 28 15 59 17 70 3 11 13 53 24 93
l20 72 -57 1 c-31 0 -134 0 -229 0 -146 -1 -173 2 -169 13 3 8 9 31 13 50 4
23 12 36 23 37 9 0 91 1 182 1 92 0 171 3 177 7 7 5 72 223 72 245 0 2 -84 5
-186 5 -102 0 -187 1 -188 3 -2 2 4 24 11 51 l14 47 229 0 228 0 16 53 c19 63
66 234 66 240 0 8 -810 5 -815 -3z"/>
<path d="M11155 4073 c-151 -30 -266 -110 -338 -234 -51 -89 -58 -208 -16
-276 31 -50 151 -111 254 -129 94 -16 165 -48 165 -74 0 -26 -22 -58 -47 -69
-40 -16 -109 -20 -155 -8 -42 10 -88 57 -88 88 0 16 -9 22 -30 21 -12 -1 -88
-13 -110 -17 -14 -3 -58 -11 -99 -17 l-73 -12 7 -50 c16 -124 85 -204 205
-240 40 -12 90 -16 182 -15 124 1 189 13 251 45 16 7 35 14 43 14 8 0 14 3 14
8 0 4 13 13 30 20 53 24 141 121 173 191 23 52 30 80 30 131 0 36 -3 75 -6 87
-10 39 -57 91 -101 113 -35 17 -175 57 -260 75 -72 16 -99 53 -67 95 20 28 47
38 106 39 66 2 116 -32 138 -92 1 -5 64 9 140 30 l137 38 -6 35 c-17 94 -87
167 -187 195 -78 23 -201 26 -292 8z"/>
<path d="M4981 4029 c-58 -35 -57 -139 1 -170 49 -26 116 -7 139 40 45 91 -53
183 -140 130z"/>
<path d="M4665 3994 c-30 -28 -32 -63 -5 -92 43 -46 110 -20 110 43 0 59 -63
88 -105 49z"/>
<path d="M5270 3688 c-32 -13 -74 -80 -76 -121 -4 -100 92 -170 190 -137 110
36 121 201 16 255 -32 17 -92 18 -130 3z"/>
<path d="M4878 3643 c-57 -36 -60 -108 -7 -157 28 -24 37 -27 73 -22 115 18
116 178 1 192 -27 3 -49 -1 -67 -13z"/>
<path d="M4574 3617 c-51 -22 -46 -95 7 -118 26 -10 34 -9 57 8 68 51 13 145
-64 110z"/>
<path d="M5174 3304 c-89 -38 -110 -156 -42 -227 25 -27 37 -32 91 -35 56 -3
65 -1 95 25 100 85 52 233 -80 247 -18 2 -47 -2 -64 -10z"/>
<path d="M4794 3270 c-78 -30 -85 -147 -11 -182 53 -25 106 -8 132 42 41 80
-38 171 -121 140z"/>
<path d="M4473 3237 c-12 -5 -27 -25 -34 -44 -10 -31 -9 -37 12 -59 26 -28 70
-32 93 -8 9 8 16 18 17 22 0 4 2 16 4 27 8 42 -50 81 -92 62z"/>
</g>
</svg>
